<?xml version="1.0" encoding="utf-8"?>
<!-- Generator: Adobe Illustrator 15.0.0, SVG Export Plug-In . SVG Version: 6.00 Build 0)  -->
<!DOCTYPE svg PUBLIC "-//W3C//DTD SVG 1.1//EN" "http://www.w3.org/Graphics/SVG/1.1/DTD/svg11.dtd">
<svg version="1.1" id="Layer_1" xmlns="http://www.w3.org/2000/svg" xmlns:xlink="http://www.w3.org/1999/xlink" x="0px" y="0px"
	 width="250px" height="95px" viewBox="0 40 200 115" enable-background="new 0 71.111 200 58.314" xml:space="preserve"
	>
<g>
	<g>
		<defs>
			<rect id="SVGID_1_" x="0.077" y="71.111" width="199.923" height="58.314"/>
		</defs>
		<clipPath id="SVGID_2_">
			<use xlink:href="#SVGID_1_"  overflow="visible"/>
		</clipPath>
		<polyline clip-path="url(#SVGID_2_)" fill="#FFD600" points="36.015,91.571 36.015,71.111 25.824,71.111 25.824,91.571 0,91.571
			0,101.839 25.824,101.839 25.824,122.452 36.015,122.452 36.015,101.839 81.839,101.839 81.839,91.571 36.015,91.571 		"/>
	</g>
	<g>
		<defs>
			<rect id="SVGID_3_" x="0.077" y="71.111" width="199.923" height="58.314"/>
		</defs>
		<clipPath id="SVGID_4_">
			<use xlink:href="#SVGID_3_"  overflow="visible"/>
		</clipPath>
		<polyline clip-path="url(#SVGID_4_)" fill="#005B97" points="0,101.839 0,101.763 0,122.452 25.824,122.452 25.824,101.839
			0,101.839 		"/>
	</g>
	<g>
		<defs>
			<rect id="SVGID_5_" x="0.077" y="71.111" width="199.923" height="58.314"/>
		</defs>
		<clipPath id="SVGID_6_">
			<use xlink:href="#SVGID_5_"  overflow="visible"/>
		</clipPath>
		<line clip-path="url(#SVGID_6_)" fill="none" x1="25.824" y1="71.111" x2="25.824" y2="71.111"/>
	</g>
	<g>
		<defs>
			<rect id="SVGID_7_" x="0.077" y="71.111" width="199.923" height="58.314"/>
		</defs>
		<clipPath id="SVGID_8_">
			<use xlink:href="#SVGID_7_"  overflow="visible"/>
		</clipPath>
		<rect x="0.077" y="71.111" clip-path="url(#SVGID_8_)" fill="#005B97" width="25.747" height="20.459"/>
	</g>
</g>
<rect x="36.015" y="101.763" fill="#005B97" width="45.9" height="20.612"/>
<rect x="36.015" y="71.111" fill="#005B97" width="45.9" height="20.459"/>
<path fill="#FFFFFF" d="M95.249,79.387c-1.686-0.689-2.912-1.686-2.912-3.754c0-2.759,2.146-4.445,4.827-4.445
	c2.759,0,4.521,1.763,4.598,4.598l-2.146,0.459c-0.229-1.992-1.149-2.835-2.529-2.835c-1.226,0-2.375,0.689-2.375,1.992
	s1.15,1.762,2.069,2.146l2.222,0.843c1.916,0.767,3.219,1.763,3.219,3.985c0,2.835-2.223,4.444-5.058,4.444
	c-3.065,0-5.287-1.839-5.287-4.981l2.146-0.459c0.23,1.992,1.226,3.218,3.142,3.218c1.303,0,2.682-0.536,2.682-2.069
	c0-1.379-1.226-1.839-2.452-2.299L95.249,79.387"/>
<polyline fill="#FFFFFF" points="110.958,86.667 109.271,81.226 107.51,86.667 105.287,86.667 102.529,75.709 104.751,75.709
	106.743,83.142 108.506,77.165 110.038,77.165 111.725,83.142 113.717,75.709 115.938,75.709 113.18,86.667 110.958,86.667 "/>
<path fill="#FFFFFF" d="M118.391,81.992c0.23,2.299,1.533,2.682,2.529,2.682s1.916-0.46,2.528-1.379l1.992,0.537
	c-0.612,1.839-2.299,2.988-4.521,2.988c-2.529,0-4.981-1.533-4.981-5.594c0-4.138,2.528-5.67,4.904-5.67s4.904,1.532,4.904,5.67
	v0.766H118.391 M123.295,80.077c-0.307-1.992-1.456-2.375-2.375-2.375c-1.073,0-2.146,0.536-2.529,2.375H123.295z"/>
<path fill="#FFFFFF" d="M134.482,86.667l-0.076-0.996c-0.996,0.843-1.84,1.149-2.759,1.149c-2.222,0-4.751-1.533-4.751-5.67
	s2.529-5.594,4.674-5.594c0.996,0,1.764,0.307,2.76,1.073v-5.364h2.299v15.402H134.482 M134.33,80.46
	c-0.307-1.916-1.38-2.682-2.605-2.682c-1.073,0-2.453,0.613-2.453,3.448s1.38,3.448,2.529,3.448c1.072,0,2.299-0.537,2.605-2.299
	V80.46H134.33z"/>
<path fill="#FFFFFF" d="M140.46,81.992c0.229,2.299,1.532,2.682,2.528,2.682s1.916-0.46,2.529-1.379l1.992,0.537
	c-0.613,1.839-2.299,2.988-4.521,2.988c-2.528,0-4.98-1.533-4.98-5.594c0-4.138,2.529-5.67,4.904-5.67s4.904,1.532,4.904,5.67v0.766
	H140.46 M145.44,80.077c-0.306-1.992-1.456-2.375-2.376-2.375c-1.072,0-2.145,0.536-2.527,2.375H145.44z"/>
<path fill="#FFFFFF" d="M155.556,86.667v-6.36c0-2.146-1.073-2.605-1.839-2.605c-0.844,0-1.916,0.536-2.146,2.069v6.896h-2.299
	V75.709h2.146l0.076,0.919c0.92-0.766,1.686-1.073,2.529-1.073c1.762,0,3.908,1.226,3.908,4.598v6.513H155.556"/>
<path fill="#FFFFFF" d="M96.935,110.115c-2.682-1.073-4.828-2.682-4.828-6.207c0-4.521,3.525-7.203,7.893-7.203
	c4.444,0,7.434,2.835,7.51,7.51l-3.448,0.843c-0.384-3.219-1.839-4.674-4.062-4.674c-1.992,0-3.908,1.073-3.908,3.218
	s1.916,2.912,3.448,3.525l3.602,1.379c3.142,1.227,5.288,2.912,5.288,6.514c0,4.674-3.679,7.279-8.276,7.279
	c-4.981,0-8.583-3.064-8.659-8.123l3.448-0.689c0.46,3.219,1.993,5.211,5.134,5.211c2.146,0,4.445-0.92,4.445-3.371
	c0-2.299-1.916-2.989-4.062-3.756L96.935,110.115"/>
<path fill="#FFFFFF" d="M129.042,114.33c0.46,3.678,2.452,4.443,4.138,4.443s3.143-0.689,4.139-2.222l3.218,0.843
	c-0.919,2.988-3.678,4.904-7.356,4.904c-4.138,0-8.122-2.452-8.122-9.119c0-6.743,4.062-9.195,7.97-9.195s7.969,2.452,7.969,9.195
	v1.227h-11.954 M137.088,111.341c-0.536-3.218-2.375-3.831-3.908-3.831c-1.762,0-3.524,0.92-4.138,3.831H137.088z"/>
<g>
	<g>
		<defs>
			<rect id="SVGID_9_" x="0.077" y="71.111" width="199.923" height="58.314"/>
		</defs>
		<clipPath id="SVGID_10_">
			<use xlink:href="#SVGID_9_"  overflow="visible"/>
		</clipPath>
		<path clip-path="url(#SVGID_10_)" fill="#FFFFFF" d="M154.482,122.068v-3.447h3.602v-11.035h-3.602v-3.448h7.28v14.483h3.601
			v3.447H154.482 M159.847,101.839c-1.38,0-2.452-1.149-2.452-2.605c0-1.456,1.072-2.682,2.452-2.682s2.528,1.149,2.528,2.682
			C162.375,100.689,161.303,101.839,159.847,101.839z"/>
	</g>
	<g>
		<defs>
			<rect id="SVGID_11_" x="0.077" y="71.111" width="199.923" height="58.314"/>
		</defs>
		<clipPath id="SVGID_12_">
			<use xlink:href="#SVGID_11_"  overflow="visible"/>
		</clipPath>
		<path clip-path="url(#SVGID_12_)" fill="#FFFFFF" d="M178.008,120.536c-1.686,1.456-3.065,1.763-4.368,1.763
			c-3.602,0-7.739-2.452-7.739-9.195s4.138-9.119,7.662-9.119c1.609,0,2.912,0.46,4.521,1.84l0.077-1.687h3.524v17.931
			c0,4.292-3.064,7.434-7.816,7.434c-3.678,0-6.359-1.839-7.279-4.904l3.219-0.843c0.996,1.532,2.529,2.222,4.138,2.222
			c2.528,0,3.908-1.532,3.908-3.908v-1.532 M178.008,111.877c-0.46-3.141-2.299-4.443-4.291-4.443c-1.763,0-3.984,0.996-3.984,5.67
			c0,4.598,2.222,5.594,4.061,5.594c1.686,0,3.755-0.843,4.215-3.678V111.877z"/>
	</g>
</g>
<path fill="#FFFFFF" d="M187.893,114.33c0.46,3.678,2.452,4.443,4.139,4.443c1.686,0,3.141-0.689,4.137-2.222l3.219,0.843
	c-0.92,2.988-3.678,4.904-7.355,4.904c-4.139,0-8.123-2.452-8.123-9.119c0-6.743,4.061-9.195,7.969-9.195s7.97,2.452,7.97,9.195
	v1.227h-11.954 M196.016,111.341c-0.537-3.218-2.376-3.831-3.908-3.831c-1.763,0-3.525,0.92-4.139,3.831H196.016z"/>
<path fill="#FFFFFF" d="M152.95,104.215c-0.689-0.153-1.38-0.23-1.763-0.23c-1.379,0-2.912,0.92-4.291,2.223l-0.153-2.069h-3.448
	v17.931h3.755v-10.344c0.46-2.836,2.222-3.832,3.831-3.832c0.537,0,1.15,0.076,2.069,0.307V104.215"/>
<polyline fill="#FFFFFF" points="115.096,122.068 108.736,104.138 112.644,104.138 116.936,116.936 121.227,104.138
	125.135,104.138 118.773,122.068 115.096,122.068 "/>
</svg>
