<?xml version="1.0" encoding="utf-8"?>
<!-- Generator: Adobe Illustrator 18.0.0, SVG Export Plug-In . SVG Version: 6.00 Build 0)  -->
<!DOCTYPE svg PUBLIC "-//W3C//DTD SVG 1.1//EN" "http://www.w3.org/Graphics/SVG/1.1/DTD/svg11.dtd">
<svg version="1.1" id="Layer_1" xmlns="http://www.w3.org/2000/svg" xmlns:xlink="http://www.w3.org/1999/xlink" x="0px" y="0px"
	 viewBox="0 0 350 250" enable-background="new 0 0 350 250" xml:space="preserve">
<g>
	<g>
		<path fill="#005694" d="M70.3,128.4h-4.4L50,85.5h4.7l10.4,29.4c0.9,2.5,2.1,6,3,9.3h0.1c0.9-3.2,2-6.4,3.2-9.7l10.9-29h4.3
			L70.3,128.4z"/>
		<path fill="#005694" d="M93.3,90.8c-1.6,0-2.8-1.3-2.8-2.9c0-1.6,1.3-2.9,2.8-2.9c1.6,0,2.9,1.2,2.9,2.9
			C96.1,89.5,94.9,90.8,93.3,90.8z M91.2,128.4V96.8h4v31.6H91.2z"/>
		<path fill="#005694" d="M109.9,128.9c-2.4,0-4.8-0.2-6.7-0.6l0.1-3.8c2,0.6,4.6,1,7.1,1c4.9,0,8.3-2.2,8.3-5.8
			c0-8.1-15.9-3-15.9-14.4c0-5.1,4.3-9,12.1-9c2,0,4.3,0.3,6.3,0.7l-0.2,3.6c-2.1-0.6-4.5-1.1-6.7-1.1c-4.9,0-7.5,2.1-7.5,5.4
			c0,8.1,16,3.3,16,14.2C122.8,124.5,118,128.9,109.9,128.9z"/>
		<path fill="#005694" d="M132.4,90.8c-1.6,0-2.9-1.3-2.9-2.9c0-1.6,1.3-2.9,2.9-2.9c1.6,0,2.9,1.2,2.9,2.9
			C135.3,89.5,134,90.8,132.4,90.8z M130.4,128.4V96.8h4v31.6H130.4z"/>
		<path fill="#005694" d="M154.7,128.9c-6.2,0-7.9-2.8-7.9-9.2V100h-7.2v-3.2h7.2V86.2l4-1.1v11.8h9.7v3.2h-9.7v17.7
			c0,6,1.1,7.6,5,7.6c1.7,0,3.3-0.2,4.7-0.6v3.6C158.9,128.6,156.7,128.9,154.7,128.9z"/>
		<path fill="#005694" d="M61.9,182.7c-3.2,0-6.3-0.4-8.7-1.1l0.3-4.1c2.5,0.9,5.8,1.6,8.8,1.6c5.8,0,10.7-2.3,10.7-8.6
			c0-10.6-20.3-6.8-20.3-20.1c0-6.7,5.4-11.6,14.5-11.6c2.7,0,5.2,0.3,7.7,0.8l-0.3,3.8c-2.4-0.8-5.2-1.2-7.8-1.2
			c-6.5,0-10.1,3.1-10.1,7.8c0,10.4,20.4,6.6,20.4,20C77.2,177.5,71.4,182.7,61.9,182.7z"/>
		<path fill="#005694" d="M117.8,182.2H113l-7.5-21.9c-0.6-1.9-1.2-3.8-1.7-5.8h-0.1c-0.7,2.7-1.5,5.3-2.3,8l-6.2,19.7h-4.8
			l-9.9-31.6H85l5.9,20.3c0.8,2.8,1.6,5.5,2.1,7.4H93c0.6-2.4,1.3-5,2.1-7.4l6.5-20.3h4.8l6.6,20.3c1.3,4.1,1.8,5.6,2.3,7.5h0.1
			c0.6-2.3,1.2-4.2,2.2-7.4l6.2-20.4h4.3L117.8,182.2z"/>
		<path fill="#005694" d="M157.1,164.9h-21.4c-0.4,10.2,3.5,14.4,10.9,14.4c3.3,0,6.9-0.9,9.1-2.1l0.4,3.6
			c-2.9,1.1-6.3,1.8-10.2,1.8c-9.4,0-14.4-5.1-14.4-16.2c0-9.4,5.1-16.4,13.7-16.4c8.6,0,12.1,5.9,12.1,12.7
			C157.2,163.3,157.2,164,157.1,164.9z M144.8,153.2c-4.7,0-8,3.4-8.9,8.6h17C153.1,156.7,150,153.2,144.8,153.2z"/>
		<path fill="#005694" d="M184.7,182.2c0-2,0.2-5.3,0.6-7.2l-0.1-0.1c-1.7,4.8-5.9,7.8-11,7.8c-7.9,0-11.7-5.7-11.7-14.9
			c0-11.4,6.4-17.6,16.1-17.6c2,0,3.9,0.1,6.2,0.4v-14.8h4v46.4H184.7z M184.7,154.2c-2.3-0.6-4.5-0.8-6.6-0.8
			c-6.9,0-11.4,4.1-11.4,14c0,7.5,2.5,12,8.1,12c6.8,0,10-7.9,10-13.6V154.2z"/>
		<path fill="#005694" d="M220.9,164.9h-21.4c-0.4,10.2,3.5,14.4,10.9,14.4c3.3,0,6.9-0.9,9.2-2.1l0.4,3.6
			c-2.9,1.1-6.3,1.8-10.2,1.8c-9.4,0-14.4-5.1-14.4-16.2c0-9.4,5.1-16.4,13.7-16.4S221,156,221,162.8C221,163.3,221,164,220.9,164.9
			z M208.6,153.2c-4.7,0-8,3.4-8.9,8.6h17C216.9,156.7,213.8,153.2,208.6,153.2z"/>
		<path fill="#005694" d="M250,182.2v-20.5c0-5.3-1.5-8.4-6.4-8.4c-6,0-10.2,5.9-10.2,13.8v15.1h-4v-31.6h4.1c0,2.2-0.2,5.3-0.6,7.3
			l0.1,0.1c1.8-4.8,5.8-8,11.4-8c7.3,0,9.5,4.5,9.5,10.2v22H250z"/>
	</g>
	<path fill-rule="evenodd" clip-rule="evenodd" fill="#FFD600" d="M246.8,66.3c1.6,0,1.7,0.3,2.6,1.1c0.7,1.6,1.8,3.3,2.3,4.8
		c0.2,0.7-0.1,1.3-0.1,1.5c-0.2,1,0.9,2.4,1.4,2.9c-0.2,0.3-0.2,0.2-0.2,0.5c0.2,0.4,0.4,0.5,0.9,0.6v0.1c-0.4,0.1-0.5,0.1-0.7,0.2
		c0.1,0.5,0.2,0.8,0.4,1.2c0.3,0,0.5,0.1,0.8,0.1c-1.2,1-0.5,5.3,0.1,7.8c1.6-0.2,3.1-0.4,4.7-0.7c2.6-0.2,5.2-0.3,7.7-0.5
		c2.2-0.6,4.9-1.4,7.3-1.9c2.4-0.2,4.8-0.4,7.3-0.6c2.2-0.4,8.5-1,9.5,0.6c0.2,0.4,0,1.2,0.3,1.6c0.5-0.1,0.7,0.1,0.9,0.7
		c-0.2,0.1-0.4,0.1-0.6,0.2c0,1.6-0.1,1.9,0.2,2.9c0.8,0.1,1.7,0.2,2.5,0.3c0,0.1-0.1,0.1-0.1,0.2c-0.2,0.2-0.5,0.4-0.7,0.6v0
		c0.6,0.1,0.6,0.1,0.7,0.6c-0.2,0-0.5,0.1-0.7,0.1c0,0,0,0.1,0,0.1c0.4,0.2,0.6,0.3,0.7,0.7c-0.3,0.1-0.2,0.1-0.4,0.3
		c0.2,0,0.4,0,0.6,0c-0.2,0.2-0.3,0.5-0.5,0.7c0.5,0.1,0.3,0,0.6,0.4v0.1c-0.3,0.1-0.6,0.2-0.9,0.3c0,0,0,0.1,0,0.1
		c0.1,0,0.1,0,0.2,0c0.2,0,0.4,0.1,0.7,0.1c-0.2,0.2-0.2,0.1-0.3,0.5c0.4,0.1,0.3,0,0.2,0.4c-0.1,0-0.3,0.1-0.4,0.1v0.1
		c0.6,0,0.6,0,1,0.2c-0.1,0.1-0.1,0.3-0.2,0.4c0.2,0,0.4-0.1,0.7-0.1c-0.2,0.3-0.3,0.6-0.4,1c0.2,0,0.4-0.1,0.6-0.1
		c-0.2,0.8-0.1,0.5-0.5,1.2c0.2,0,0.3,0,0.5,0c-0.1,0-0.1,0.1-0.2,0.1c-1.9,1.9-4.4,2.4-6.9,3.8c-1.7,1-2.3,1.9-4.9,2.4
		c-1.4,0.3-2.6-0.1-3.8,0.2c-1.4,0.4-2.9,0.8-4.3,1.3c-1.2,0.1-2.3,0.3-3.5,0.5c-0.6,0.2-1,0.9-1.7,1.1c-2.5,0.7-11.5-0.8-13,1.7
		c-0.5,0.7,0.5,8.2,0.5,8.2c0,0,0,0.1,0,0.1c0.3,1.1-0.3,2,0.6,2.5c0.2,0.2,0.5,0.2,0.8,0.3c-0.6,0.1-0.8,0.3-1.1,0.6
		c0.1,0.1,0.2,0.2,0.3,0.3c0.2,0.3,0.2,0.2,0.5,0.4c-0.2,0.2-0.3,0.2-0.4,0.6c0.2,0.1,0.5,0.1,0.7,0.2c-0.1,0.1-0.2,0.2-0.2,0.3
		c-0.2,0.1-0.5,0.1-0.7,0.2c0.5,3.1,0.4,9-2.6,10.8c-0.4,0.2-0.4,0.7-0.9,0.7c0.2-0.4,0.3-1-0.1-1.2c-0.4-0.3-1,0.3-1.2,0.1
		c-0.2-0.1,0-0.5-0.4-0.6c0,0-0.1,0.1-0.1,0.1c-0.2,0-0.3,0.1-0.6,0.2c0-0.4,0.1-0.4-0.1-0.7c-0.2,0.3-0.4,0.5-0.7,0.8
		c-0.1,0-0.1-0.1-0.2-0.1c0-0.2-0.1-0.3-0.1-0.5c-1,0.6-1.5,0.9-2.4,0.8c-0.1,0.1-0.1,0.3-0.2,0.4c0-0.2-0.1-0.4-0.1-0.6
		c-0.1,0-0.1,0.1-0.2,0.1c0,0.2-0.1,0.3-0.1,0.5c-0.2-0.1-0.4-0.1-0.6-0.2c-0.4,0.4-1,0.8-0.8,1.4c-0.5-0.1-0.4-0.1-0.9,0.1
		c-0.1,0.5-0.2,0.5-0.1,1.1c-0.6-0.2-0.5,0.1-0.8-0.2c-1.4-0.8-1.3-3.1-2.4-4.3c-0.5,0.4-1.1,0.7-1.6,1.1c-0.5,0.5-0.4,1.3-1,1.7
		c-1.7-0.3-2.1-2.3-2.5-3.9c-0.8-2.9-1.3-9-0.8-12.3c0-1.6,0-3.2,0-4.8h-0.1c0,0.1,0,0.1,0,0.2c-0.1,1.1-0.1,2.2-0.2,3.4h-0.1
		c-0.1,0-0.2-0.1-0.3-0.1c-0.2-1.8-0.4-3.6-0.7-5.4c-0.8,0.3-1.6,0.5-2.5,0.8c-0.6,0-1.3,0.1-1.9,0.1c-1.7,0.5-4.9,0.4-7.6,1
		c-6.3,1.3-17.1,5-22.2-0.4c-0.3-0.1-0.6-0.1-0.9-0.2c-0.3-0.3-0.5-1.1-0.7-1.2c-0.7-0.8-1.7-1.2-2.1-2.3c0.2-0.1,0.4-0.1,0.6-0.2
		c-0.4-0.3-0.7-0.1-0.9-0.8c0.3-0.4,0-1.5,0.2-2c0.1-0.4,2.4-3.2,2.8-3.5c3.6-2.9,17.9-7.6,22.8-7.7c0.4-1.5,2.7,0,4.4-0.4
		c2.5-0.6,4.9-1.2,7.4-1.8c0-1.4-0.5-1.6-0.8-2.6c-0.2-0.9-0.1-6.6,0.2-7.3h0.1c0,0.3,0,0.5,0,0.8c0.1-0.1,0.2-0.1,0.4-0.2
		c0.2-0.1,0.3-0.2,0.5-0.3c-0.3-2.4,0.2-3.1,0.9-5.2c1.1-3.7,0.2-6.3,3.1-8.5c1-0.8,1.1-1.4,2.8-1.5c0.6,0.8,1.4,1.1,2.7,1.2
		C245.2,67,245.7,66.9,246.8,66.3z"/>
	<path fill-rule="evenodd" clip-rule="evenodd" fill="#005694" d="M287,71.9c0.2,0,0.3,0.1,0.5,0.1c-0.4,0.2-0.4,0.3-0.6,0.7
		c0.1,0.1,0.2,0.1,0.3,0.2c0.2-0.1,0.1-0.1,0.4-0.1c-0.3,0.3-0.5,0.4-0.7,0.9c0.1,0,0.1,0,0.2,0.1c0.3-0.2,0.6-0.3,0.9-0.5
		c0,0.1-0.1,0.1-0.1,0.2c-0.3,0.2-0.6,0.5-1,0.8c0.1,0.3,0.2,0.5,0.3,0.8c-0.3,0.2-0.3,0.4-0.4,0.8c0.1,0,0.3-0.1,0.4-0.1
		c-0.1,0.2-0.2,0.3-0.3,0.5c0.2,0,0.3-0.1,0.5-0.1c-0.7,1-1.2,2.7-2,4.2c-2.3,0.7-3.8,2.1-6.1,2.9c-1.7,0.5-3.2,0.2-5,0.6
		c-1,0.3-2.1,0.6-3.1,0.9c-1.8,0.3-3.5,0-4.8-0.2c-3.1-0.5-6.5,0.5-9.5-0.5c-1.5-0.5-2.4-1.8-3.5-2.7c0.2-0.9,0.3-0.7,0.8-1.1
		c-0.3-0.4-0.1-0.5-0.2-1c0.4,0,0.4,0,0.6-0.2c0,0-0.1-0.1-0.1-0.1c-0.4,0-0.8-0.1-1.2-0.1c-0.1-0.3-0.1-0.6-0.2-0.9
		c0.3-0.1,0.5-0.2,0.8-0.3c-0.5-0.3-0.7-0.3-1-0.8c0.1-0.1,0.3-0.2,0.5-0.3v-0.1c-0.4-0.2-0.5-0.1-0.7-0.5c0.4,0,0.7,0,0.9-0.2
		c-0.5,0-0.9-0.1-1.1-0.4c-0.8-1.2-0.1-1.8-0.6-3.3c-0.3-1-1.3-1.9-1.7-2.9c-0.3-0.6,0.1-1.6-0.1-2.5c0.2-0.1,0.4-0.2,0.6-0.3
		c-0.1-0.1-0.2-0.1-0.4-0.2c0.4-1.1,2.2-2.1,2.5-2.8c0.7,0.1,1.5-0.2,2-0.2c1.1,0.1,2.9,1,4.4,0.7c2.5-0.5,4.7-1.8,7.5-2.4
		c2.4-0.5,3.6,0.2,5.3,0.5c0.9-0.2,1.8-0.4,2.8-0.6c0.8-0.2,4.7-0.1,5.4,0.3c0.2,0.2,0.3,0.4,0.5,0.6c2.2,0.7,3.9-0.5,5.6,0.8
		c0,0.1-0.1,0.1-0.1,0.2c-0.3,0-0.2,0-0.5,0.2c0,0.1,0,0.2,0,0.3c0.2,0.2,0.4,0.4,0.7,0.7c-0.3,0.2-0.1,0-0.3,0.4c0.2,0,0.4,0,0.6,0
		c0,0.1-0.1,0.1-0.1,0.2c-0.2,0.1-0.4,0.1-0.7,0.2c0,0.2,0,0.4,0,0.6c0.2,0.2,0.3,0.1,0.6,0.2c-0.1,0.5,0,0.1,0.1,0.7
		c-0.4,0.1-0.2,0-0.4,0.3c0.1,0,0.2,0.1,0.4,0.1c-0.3,0.2-0.3,0-0.4,0.6c0.3,0.4,0.3,0.4,0.7,0.7c-0.2,0.6-0.3,1.9,0,2.4
		c0.2-0.1,0.4-0.1,0.7-0.2c0,0,0,0.1,0,0.1c-0.1,0-0.1,0-0.2,0c-0.2,0.1-0.3,0.3-0.5,0.4c0,0,0,0.1,0,0.1c0.5,0,0.8-0.1,1,0.1
		c-0.1,0-0.1,0-0.2,0C287,71.3,287,71.2,287,71.9z"/>
	<path fill-rule="evenodd" clip-rule="evenodd" fill="#005694" d="M217.2,66.6c3.8-0.1,6.6,0.3,8.4,2.2c-0.3,0.1-0.1,0-0.3,0.2
		c1.6,0.4,1.5,2.3,3.3,2.7c0,0.1,0,0.1,0,0.2c-0.5,0-0.5,0-0.7,0.4c1.3,0.7,2.1,3.4,1.6,5.2c0.2,0,0.4,0,0.7,0c-0.1,0-0.1,0-0.2,0
		c-0.3,0.2-0.4,0.3-0.6,0.7c0.6,1,0.2,1.1,0.3,1.8c-0.1,0.2-0.2,0.5-0.3,0.7c0.1,0,0.3,0,0.4,0c-0.3,0.3-0.5,0.3-0.7,0.9
		c0.1-0.1,0.2-0.1,0.4-0.2c-0.2,0.5-0.5,0.6-0.6,1.4c0.1,0,0.1,0,0.2,0c0.3,0.1,0.3,0,0.7-0.1c-0.2,0.2-0.3,0.4-0.5,0.7
		c0.1,0,0.2-0.1,0.3-0.1c-0.2,0.2-0.3,0.5-0.5,0.8c0.2,0.2,0.1,0.2,0.5,0.1c-0.4,0.9-1.2,1.3-1.7,2.3c0.3-0.2,0.6-0.4,1-0.6
		c-0.2,0.6-0.6,0.5-0.8,1.2c0.2-0.1,0.4-0.1,0.6-0.2c-0.4,0.8-2.3,3.5-3.1,4.1c-1.1,0.7-2.6,0.6-4,1.2c-4.9,1.8-11.2,4.4-17.2,3.8
		c-1.9-0.2-4.6,0.8-6.7,0c-2.8-1.1-3.7-2.7-5.4-4.9c0.4-0.2,0.3,0,0.3-0.3c-0.7-0.3,1.1-4.9,1.2-5.5c0.4-0.1,1.4-0.7,1.2-0.8
		c0.2-0.8-0.2-2-0.3-2.6c0.2-0.1,0.4-0.3,0.6-0.5c-0.4-1.7,0.6-1.9,1-3.4c-0.1-0.6-0.1-1.2-0.2-1.8c0.5-1.7,0.8-3.5,2-5.1
		c1.8-2.3,10.7-3.3,14.3-4C214.1,66.9,215.7,66.8,217.2,66.6z"/>
	<path fill-rule="evenodd" clip-rule="evenodd" fill="#005694" d="M260.7,130.1c0-0.2,0-0.4,0-0.6c-0.5-0.3-1.2-1.1-1.2-1.4
		c0-2,0.7-2.4-0.1-3.9c-0.3-0.1-0.5-0.1-0.8-0.2c0.3-0.4-0.3-0.7-0.7-1c0.2-0.2,0.3-0.3,0.5-0.5c-0.1-0.1-0.3-0.1-0.4-0.2
		c0.2-0.5,0.7-0.5,1-0.8c0-0.1-0.1-0.1-0.1-0.2c-0.3,0-0.5-0.1-0.8-0.2c0.2-0.3,0.3-0.2,0.4-0.7c-0.5-0.1-0.4-0.2-0.7-0.4
		c0-0.1,0.1-0.2,0.1-0.3c0.4-0.2,0.8-0.4,1.1-0.6v-0.1c-0.8,0-0.9,0-1.3-0.3c-0.1-0.8,0.1-1.8-0.3-2.5c0.2-0.1,0.4-0.2,0.6-0.3
		c-0.2-0.1-0.5-0.2-0.8-0.3c0.4-1.7,0.5-3.6,1.7-5.1c1-1.1,2.2-1.2,3.6-1.6c0.2-0.3,0.4-0.5,0.7-0.8c0.4-0.3,2.6-1,3-1.1
		c1.5-0.1,2.9-0.2,4.4-0.3c0.6-0.3,1.3-0.6,1.9-0.9c1.3-0.5,2.7-0.1,4.3-0.5c1.4-0.3,3-0.9,4.3-1.3c4-1.2,11.1-0.5,12.1,2.8
		c0.1,0.1,0.7,1.8,0.6,2c-0.3,0.1,0,0,0,0.3c0.5,0.2,0.5,0.5,0.9,0.8c-0.1,1,0.1,1.3-0.5,1.9c0.1,0.2,0.2,0.3,0.3,0.5
		c1.9,0.1,3.7,1.4,4.2,2.6c-0.1,0.1-0.2,0.1-0.3,0.2c0,0.1,0.1,0.3,0.1,0.4c0.3,0.1,0.7,0.2,1,0.3c-0.3,0.2-0.3,0.3-0.3,0.7
		c0.9,0.3,0.8,1.6,0.3,2.1c0.3,0.9,0.2,1,0.4,1.6c-0.2,0.1-0.4,0.1-0.6,0.2c0.2,0.5-0.2,0.4,0.2,0.8c-0.1,0.4-0.1,0.3-0.4,0.5
		c0.3,0.4,0.4,0.3,0.1,0.7c-1.2,1.9-3.9,1.5-5.2,3c0.5-0.2,1-0.4,1.4-0.7c-1.4,2.5-6.1,2.6-9.3,3.4c-4,0.7-8,1.4-12,2.1
		c-2.4,0.5-5.7,1.4-8.6,1.1c-1.3-0.2-2.6-0.3-3.9-0.5C261.2,130.6,261.7,130.2,260.7,130.1z"/>
	<path fill-rule="evenodd" clip-rule="evenodd" fill="#005694" d="M227.6,111.7c1.8,0.5,2.4,0.5,3.9,1.2c-0.4,0.2-0.4,0.2-0.6,0.5
		c0.1,0.6,1.1,2.1,2.4,2.1c0,0.2-0.1,0.4-0.1,0.6c0.3,0,1.2,0.1,1.6,0.2c-0.1,0.3-0.1,0.1-0.1,0.4c0.5,0.2,0.5,0.2,1,0.2
		c-0.1,0.8-0.2,0.9-0.5,1.8c-0.5,0.1-1.1,0.2-1,0.7c-1.2,2.1,1.1,5.3-2.8,6.1c0.1,2.2-2,4.2-2.5,6c0,0,0.1,0,0.1,0
		c0.1-0.1,0.3-0.1,0.4-0.2c-4.5,5.2-12.2,5.3-20.6,6.7c-3,0.5-6.5,1.2-9.1-0.2c-2.4-1.3-3.6-3.9-2-6c0.3-0.5,0.5-1,0.8-1.4
		c-0.5-0.9-3.2-3-1.7-4.4c-0.9-2.2,2.8-3.3,3.6-4.7c2.5-3.8,7-4,11.8-5.4c3.4-1,7.3-2.6,10.8-3.5C224.5,111.8,226,112.3,227.6,111.7
		z"/>
</g>
</svg>
